^C:\USERS\KMARREF\DOCUMENTS\SOURCE\LUNAP11\SIGNATURE\SOURCE\CERTIFICATE.CPP
/c /IC:\USERS\KMARREF\DOCUMENTS\SOURCE\LUNAP11\SIGNATURE\INCLUDE /ZI /JMC /nologo /W3 /WX- /diagnostics:column /sdl /Od /D WIN32 /D _WINDOWS /D OS_WIN32 /D _CRT_SECURE_NO_DEPRECATE /Gm- /EHsc /RTC1 /MDd /GS /fp:precise /Zc:wchar_t /Zc:forScope /Zc:inline /std:c++20 /permissive- /Fo"X64\DEBUG\\" /Fd"X64\DEBUG\VC143.PDB" /external:W3 /Gd /TP /FC C:\USERS\KMARREF\DOCUMENTS\SOURCE\LUNAP11\SIGNATURE\SOURCE\CERTIFICATE.CPP
^C:\USERS\KMARREF\DOCUMENTS\SOURCE\LUNAP11\SIGNATURE\SOURCE\KEY.CPP
/c /IC:\USERS\KMARREF\DOCUMENTS\SOURCE\LUNAP11\SIGNATURE\INCLUDE /ZI /JMC /nologo /W3 /WX- /diagnostics:column /sdl /Od /D WIN32 /D _WINDOWS /D OS_WIN32 /D _CRT_SECURE_NO_DEPRECATE /Gm- /EHsc /RTC1 /MDd /GS /fp:precise /Zc:wchar_t /Zc:forScope /Zc:inline /std:c++20 /permissive- /Fo"X64\DEBUG\\" /Fd"X64\DEBUG\VC143.PDB" /external:W3 /Gd /TP /FC C:\USERS\KMARREF\DOCUMENTS\SOURCE\LUNAP11\SIGNATURE\SOURCE\KEY.CPP
^C:\USERS\KMARREF\DOCUMENTS\SOURCE\LUNAP11\SIGNATURE\SOURCE\SIGNATURE.CPP
/c /IC:\USERS\KMARREF\DOCUMENTS\SOURCE\LUNAP11\SIGNATURE\INCLUDE /ZI /JMC /nologo /W3 /WX- /diagnostics:column /sdl /Od /D WIN32 /D _WINDOWS /D OS_WIN32 /D _CRT_SECURE_NO_DEPRECATE /Gm- /EHsc /RTC1 /MDd /GS /fp:precise /Zc:wchar_t /Zc:forScope /Zc:inline /std:c++20 /permissive- /Fo"X64\DEBUG\\" /Fd"X64\DEBUG\VC143.PDB" /external:W3 /Gd /TP /FC C:\USERS\KMARREF\DOCUMENTS\SOURCE\LUNAP11\SIGNATURE\SOURCE\SIGNATURE.CPP
